{
  "keyMappings": "# Navigating the page\n\nunmap <c-e>\nunmap <c-y>\nmap + scrollDown\nmap - scrollUp\nmap <down> scrollDown\nmap <up> scollUp\n\nmap ge scrollToBottom\nmap <c-u> scrollPageUp\nmap <c-d> scrollPageDown\n\nmap R reload hard\nmap ñ LinkHints.activateMode action=focus\nmap û LinkHints.activateMode action=copy-text\n\nunmap [[\nunmap ]]\nmap [ goPrevious\nmap ] goNext\n\n# Using the vomnibar\n\nunmap T\nmap t Vomnibar.activateTabSelection\nmap e Vomnibar.activateEditUrl\nmap E Vomnibar.activateEditUrlInNewTab\n\n# Navigating history\n\nmap ( goBack\nmap ) goForward\n\n# Manipulating tabs\n\nunmap gt\nunmap gT\nmap { previousTab\nmap } nextTab\nmap gp previousTab\nmap gn nextTab\n\nmap ga visitPreviousTab\nunmap g0\nunmap g$\nmap ^ firstTab\nmap $ lastTab\nmap gh firstTab\nmap gl lastTab\n\nunmap x\nunmap X\nmap d removeTab\nmap u restoreTab\n\nunmap <<\nunmap >>\nmap < moveTabLeft\nmap > moveTabRight",
  "linkHintCharacters": "nretsiauodcvhfl",
  "nextPatterns": "next,more,newer,>,›,→,»,≫,>>,suivant",
  "previousPatterns": "prev,previous,back,older,<,‹,←,«,≪,<<,précédent",
  "searchEngines": "d: https://duckduckgo.com/?q=%s DuckDuckGo\ng: https://www.google.com/search?q=%s Google\nef: https://www.wordreference.com/redirect/translation.aspx?dict=enfr&w=%s WordReference (english -> french)\nfe: https://www.wordreference.com/redirect/translation.aspx?dict=fren&w=%s WordReference (french -> english)\ngh: https://github.com/search?q=%s&type=repositories GitHub\nn: https://search.nixos.org/packages?channel=unstable&from=0&size=50&sort=relevance&type=packages&query=%s NixOS packages\nw: https://www.wikipedia.org/w/index.php?title=Special:Search&search=%s Wikipedia\ny: https://www.youtube.com/results?search_query=%s Youtube\ngm: https://www.google.com/maps?q=%s Google maps\nosm: https://www.openstreetmap.org/search?query=%s OpenStreetMap\nc: https://crates.io/search?q=%s crates.io",
  "searchUrl": "https://duckduckgo.com/?q=%s",
  "settingsVersion": "2.1.2",
  "userDefinedLinkHintCss": "/* Catppuccin Macchiato Palette */\n\n:root {\n  --vimium-rosewater: #f4dbd6;\n  --vimium-peach: #f5a97f;\n  --vimium-green: #a6da95;\n  --vimium-blue: #8aadf4;\n  --vimium-lavender: #b7bdf8;\n  --vimium-text: #cad3f5;\n  --vimium-surface2: #5b6078;\n  --vimium-surface0: #363a4f;\n  --vimium-base: #24273a;\n  --vimium-mantle: #1e2030;\n  --vimium-crust: #181926;\n}\n#vimiumHintMarkerContainer div.internalVimiumHintMarker, #vimiumHintMarkerContainer div.vimiumHintMarker {\n  padding: 3px 4px;\n  background: var(--vimium-peach);\n  border: 1;\n  border-color: var(--vimium-mantle);\n  box-shadow: 0 1px 3px rgba(0, 0, 0, 0.12), 0 1px 2px rgba(0, 0, 0, 0.24);\n}\n\n#vimiumHintMarkerContainer div span {\n  color: var(--vimium-mantle) !important;\n  text-shadow: none;\n}\n\n#vimiumHintMarkerContainer div > .matchingCharacter {\n  opacity: 1.0;\n}\n\n#vimiumHintMarkerContainer div > .matchingCharacter ~ span {\n  color: var(--vimium-surface2);\n}\n\n#vomnibar {\n  background: var(--vimium-base);\n  border: 2px solid var(--vimium-lavender);\n  animation: show 200ms cubic-bezier(0, 0, 0.2, 1) forwards;\n  max-height: calc(100vh - 70px);\n  overflow: hidden;\n}\n\n@keyframes show {\n  0% {\n    transform: translateY(50px);\n    opacity: 0;\n  }\n  100% {\n    transform: translateY(0);\n    opacity: 1;\n  }\n}\n\n#vomnibar input {\n  color: var(--vimium-text);\n  background: var(--vimium-base);\n  border: none;\n  height: unset;\n  padding: 16px 30px;\n}\n\n#vomnibar .vomnibarSearchArea {\n  border: none;\n  padding: unset;\n  background: var(--vimium-base)\n}\n\n#vomnibar ul {\n  padding: 0;\n  margin: 0;\n  background: var(--vimium-base);\n  border-top: 1px solid var(--vimium-surface0);\n}\n\n#vomnibar li {\n  padding: 10px;\n  border-bottom: 1px solid var(--vimium-surface0)\n}\n\n#vomnibar li .vomnibarTopHalf,\n#vomnibar li .vomnibarBottomHalf {\n  padding: 3px 0;\n}\n\n#vomnibar li .vomnibarSource {\n  color: var(--vimium-peach);\n}\n\n#vomnibar li em,\n#vomnibar li .vomnibarTitle {\n  color: var(--vimium-blue);\n  font-weight: bold;\n}\n\n#vomnibar li .vomnibarUrl {\n  color: var(--vimium-rosewater);\n}\n\n#vomnibar li .vomnibarMatch {\n  color: var(--vimium-green);\n  font-weight: bold;\n}\n\n#vomnibar li .vomnibarTitle .vomnibarMatch {\n  color: var(--vimium-blue);\n}\n\n#vomnibar li.vomnibarSelected {\n  background-color: var(--vimium-surface0);\n}\n\ndiv.vimiumHUD {\n  background: var(--vimium-base);\n  border: none;\n  box-shadow: 0 1px 3px rgba(0, 0, 0, 0.12), 0 1px 2px rgba(0, 0, 0, 0.24);\n}\n\ndiv.vimiumHUD span#hud-find-input,\ndiv.vimiumHUD .vimiumHUDSearchAreaInner {\n  color: var(--vimium-text)\n}\n\ndiv.vimiumHUD .hud-find {\n  background-color: var(--vimium-base);\n  border: none;\n}\n\ndiv.vimiumHUD .vimiumHUDSearchArea {\n  background-color: var(--vimium-base);\n}\n\nbody.vimiumBody, .vimiumBody {\n  background-color: var(--vimium-base) !important;\n}\n\n.vimiumBody #footerWrapper, #userDefinedLinkHintCss, #scrollStepSize, #linkHintNumbers, #newTabUrl, #nextPatterns, #previousPatterns, #searchUrl, #linkHintCharacters, #searchEngines, #keyMappings, #uploadBackup\n{\n  color: var(--vimium-text) !important;\n  background-color: var(--vimium-mantle);\n}\n\n.vimiumBody #footer, .vimiumBody .remove, input[name=\"pattern\"], input[name=\"passKeys\"], #uploadBackup\n{\n  background-color: var(--vimium-mantle) !important;\n  color: var(--vimium-text) !important;\n}\n\nbody.vimiumBody input {\n  border-color: var(--vimium-crust);\n}\n\nbody.vimiumBody a {\n  color: var(--vimium-lavender);\n}\n\nbody.vimiumBody .exclusionHeaderText, body.vimiumBody .example, body.vimiumBody .caption, body.vimiumBody header, body.vimiumBody textarea, body.vimiumBody input, body.vimiumBody label  {\n  color: var(--vimium-text) !important;\n}",
  "exclusionRules": [
    {
      "passKeys": "",
      "pattern": "https?://mail.google.com/*"
    },
    {
      "passKeys": "",
      "pattern": "https?://monkeytype.com/*"
    },
    {
      "passKeys": "",
      "pattern": "https?://read.readwise.io/*"
    },
    {
      "passKeys": "",
      "pattern": "https?://www.youtube.com/watch*"
    },
    {
      "passKeys": "",
      "pattern": "https?://readwise.io/dailyreview*"
    },
    {
      "passKeys": "",
      "pattern": "https?://ergol.org/*"
    },
    {
      "passKeys": "",
      "pattern": "https?://teams.microsoft.com/*"
    }
  ]
}
